Untitled Draft
…
Untitled Draft

    Author

             Report Author 

    Published

      November 6, 2024

Checks

summarise_not_recorded(moyes_pheno_raw)

# A tibble: 94 × 3
   Variable                    n    pct
   <chr>                   <int>  <dbl>
 1 exposure_time_min        3021 0.857 
 2 no_mosquitoes_dead       2861 0.812 
 3 start_month               727 0.206 
 4 end_month                 727 0.206 
 5 generation                235 0.0667
 6 concentration_percent     230 0.0652
 7 no_mosquitoes_tested      172 0.0488
 8 start_year                 65 0.0184
 9 end_year                   65 0.0184
10 identification_method_2    40 0.0113
# ℹ 84 more rows

summarise_not_found(moyes_pheno_raw)

# A tibble: 94 × 3
   Variable              n     pct
   <chr>             <int>   <dbl>
 1 latitude             78 0.0221 
 2 longitude            78 0.0221 
 3 latitute_2            7 0.00199
 4 longitude_2           7 0.00199
 5 admin_level           6 0.00170
 6 gaul_code             6 0.00170
 7 bioassay_id           0 0      
 8 source_1_citation     0 0      
 9 source_1_type         0 0      
10 source_2_citation     0 0      
# ℹ 84 more rows

check_back_calculate_no_dead(moyes_pheno_prepared)

[1] "Checks have passed, well done! :)"

check_mortality(moyes_pheno_prepared)

.
TRUE 
 560 

summarise_not_recorded(moyes_geno_raw)

# A tibble: 98 × 3
   Variable        n   pct
   <chr>       <int> <dbl>
 1 l_l_no        694 0.650
 2 l_f_no        694 0.650
 3 f_f_no        694 0.650
 4 l_s_no        694 0.650
 5 s_s_no        694 0.650
 6 f_s_no        694 0.650
 7 l_l_percent   633 0.593
 8 l_f_percent   633 0.593
 9 f_f_percent   633 0.593
10 l_s_percent   633 0.593
# ℹ 88 more rows

summarise_not_found(moyes_geno_raw)

# A tibble: 98 × 3
   Variable              n      pct
   <chr>             <int>    <dbl>
 1 latitude             15 0.0140  
 2 longitude            15 0.0140  
 3 latitude_6            1 0.000936
 4 longitude_6           1 0.000936
 5 kdr_test_id           0 0       
 6 source_1_citation     0 0       
 7 source_1_type         0 0       
 8 source_2_citation     0 0       
 9 source_2_type         0 0       
10 capture_method_1      0 0       
# ℹ 88 more rows

check_back_calculate_no_dead(moyes_geno_prepared)

Warning: recalculate_no_dead doesn't match OG no_mosquitoes_dead column

# A tibble: 586 × 13
   country      start_month start_year end_month end_year latitude longitude
   <chr>        <chr>            <int> <chr>     <chr>       <dbl>     <dbl>
 1 Tanzania     4                 2011 6         2011        -1.96  31.4    
 2 Tanzania     11                2011 12        2011        -1.87  31.4    
 3 Tanzania     11                2011 12        2011        -1.80  31.4    
 4 Tanzania     11                2011 12        2011        -2.06  31.5    
 5 Burkina Faso 8                 2008 10        2008        10.7   -4.26   
 6 Burkina Faso 8                 2008 10        2008        11.0   -4.05   
 7 Senegal      NR                2001 NR        2001        12.6  -12.2    
 8 Senegal      NR                2005 NR        2005        12.6  -12.2    
 9 Ghana        4                 2002 10        2002         5.63  -0.00383
10 Cameroon     NR                2006 NR        2006         5.52  10.6    
# ℹ 576 more rows
# ℹ 6 more variables: no_mosquitoes_tested <dbl>, no_dead_check <dbl>,
#   dead_comparison <dbl>, no_mosquitoes_dead <dbl>, percent_mortality <dbl>,
#   insecticide <chr>

check_mortality(moyes_geno_prepared)

.
TRUE 
1010 

# there are times where PCT mortality is recorded, but neither tested or dead?
why_pct_mortality(moyes_geno_pheno)

# A tibble: 221 × 3
   no_mosquitoes_tested no_mosquitoes_dead percent_mortality
                  <dbl>              <dbl>             <dbl>
 1                   NA                 NA                NA
 2                   NA                 NA                NA
 3                   NA                 NA                NA
 4                   NA                 NA                NA
 5                   NA                 NA                NA
 6                   NA                 NA                NA
 7                   NA                 NA                NA
 8                   NA                 NA                NA
 9                   NA                 NA                NA
10                   NA                 NA                NA
# ℹ 211 more rows
…
count(ir_data, country, type, sort = TRUE)

# A tibble: 54 × 3
   country               type           n
   <chr>                 <chr>      <int>
 1 "Kenya"               genotypic    457
 2 "Benin"               phenotypic   378
 3 "Ethiopia"            phenotypic   257
 4 "Sudan"               phenotypic   197
 5 "Benin"               genotypic    139
 6 "C\xf4te d\x92Ivoire" phenotypic   114
 7 "Cameroon"            phenotypic   113
 8 "Burkina Faso"        phenotypic   109
 9 "Ghana"               phenotypic    94
10 "Mozambique"          phenotypic    91
# ℹ 44 more rows
…
